{
  "data": {
    "Page": {
      "pageInfo": {
        "total": 165,
        "perPage": 50,
        "currentPage": 4,
        "lastPage": 4,
        "hasNextPage": false
      },
      "media": [
        {
          "id": 7696,
          "title": {
            "userPreferred": "Sangokushi Daiichibu Eiyuutachi no Yoake"
          },
          "coverImage": {
            "extraLarge": "https://s4.anilist.co/file/anilistcdn/media/anime/cover/medium/b7696-zeqXdzeqyeSr.png",
            "large": "https://s4.anilist.co/file/anilistcdn/media/anime/cover/medium/b7696-zeqXdzeqyeSr.png",
            "color": "#d6bb1a"
          },
          "startDate": {
            "year": 1992,
            "month": 1,
            "day": 25
          },
          "endDate": {
            "year": 1992,
            "month": 1,
            "day": 25
          },
          "bannerImage": "https://s4.anilist.co/file/anilistcdn/media/anime/banner/7696-XYKLdAhm4fwM.jpg",
          "season": "WINTER",
          "description": "An anime based on the Romance of the Three Kingdoms novel.\n<br><br>\n(Source: Anime News Network)",
          "type": "ANIME",
          "format": "MOVIE",
          "status": "FINISHED",
          "episodes": 1,
          "duration": 137,
          "chapters": null,
          "volumes": null,
          "genres": [
            "Drama"
          ],
          "isAdult": false,
          "averageScore": null,
          "popularity": 203,
          "nextAiringEpisode": null,
          "mediaListEntry": null,
          "studios": {
            "edges": [
              {
                "isMain": true,
                "node": {
                  "id": 18,
                  "name": "Toei Animation"
                }
              }
            ]
          }
        },
        {
          "id": 7625,
          "title": {
            "userPreferred": "Fairy Dick"
          },
          "coverImage": {
            "extraLarge": "https://s4.anilist.co/file/anilistcdn/media/anime/cover/medium/7625.jpg",
            "large": "https://s4.anilist.co/file/anilistcdn/media/anime/cover/medium/7625.jpg",
            "color": "#e4e4a1"
          },
          "startDate": {
            "year": 1992,
            "month": 6,
            "day": 7
          },
          "endDate": {
            "year": 1992,
            "month": 12,
            "day": 6
          },
          "bannerImage": null,
          "season": "SUMMER",
          "description": "Based on Hobberdy Dick (1955) by Katharine Mary Briggs (1898-1980, English). <br><br>\nTells the story of a 300-year-old hobgoblin who lives in Widford Manor in the Cotswolds. <br><br>\n(Source: AniDB)",
          "type": "ANIME",
          "format": "TV",
          "status": "FINISHED",
          "episodes": 26,
          "duration": 20,
          "chapters": null,
          "volumes": null,
          "genres": [
            "Fantasy"
          ],
          "isAdult": false,
          "averageScore": null,
          "popularity": 190,
          "nextAiringEpisode": null,
          "mediaListEntry": null,
          "studios": {
            "edges": []
          }
        },
        {
          "id": 7124,
          "title": {
            "userPreferred": "Madou King Granzort: Bouken-hen"
          },
          "coverImage": {
            "extraLarge": "https://s4.anilist.co/file/anilistcdn/media/anime/cover/medium/7124.jpg",
            "large": "https://s4.anilist.co/file/anilistcdn/media/anime/cover/medium/7124.jpg",
            "color": "#f16b43"
          },
          "startDate": {
            "year": 1992,
            "month": 3,
            "day": 27
          },
          "endDate": {
            "year": 1992,
            "month": 6,
            "day": 26
          },
          "bannerImage": null,
          "season": "SPRING",
          "description": null,
          "type": "ANIME",
          "format": "OVA",
          "status": "FINISHED",
          "episodes": 3,
          "duration": 25,
          "chapters": null,
          "volumes": null,
          "genres": [
            "Action",
            "Comedy",
            "Fantasy",
            "Mecha",
            "Sci-Fi"
          ],
          "isAdult": false,
          "averageScore": null,
          "popularity": 115,
          "nextAiringEpisode": null,
          "mediaListEntry": null,
          "studios": {
            "edges": [
              {
                "isMain": true,
                "node": {
                  "id": 14,
                  "name": "Sunrise"
                }
              },
              {
                "isMain": true,
                "node": {
                  "id": 327,
                  "name": "Takara Tomy"
                }
              }
            ]
          }
        },
        {
          "id": 6981,
          "title": {
            "userPreferred": "Super Zugan"
          },
          "coverImage": {
            "extraLarge": "https://s4.anilist.co/file/anilistcdn/media/anime/cover/medium/6981.jpg",
            "large": "https://s4.anilist.co/file/anilistcdn/media/anime/cover/medium/6981.jpg",
            "color": "#f1c935"
          },
          "startDate": {
            "year": 1992,
            "month": 10,
            "day": 9
          },
          "endDate": {
            "year": 1993,
            "month": 3,
            "day": 13
          },
          "bannerImage": null,
          "season": "FALL",
          "description": "A story about mahjong.",
          "type": "ANIME",
          "format": "TV",
          "status": "FINISHED",
          "episodes": 21,
          "duration": 25,
          "chapters": null,
          "volumes": null,
          "genres": [],
          "isAdult": false,
          "averageScore": null,
          "popularity": 166,
          "nextAiringEpisode": null,
          "mediaListEntry": null,
          "studios": {
            "edges": []
          }
        },
        {
          "id": 6583,
          "title": {
            "userPreferred": "Super Bikkuriman"
          },
          "coverImage": {
            "extraLarge": "https://s4.anilist.co/file/anilistcdn/media/anime/cover/medium/6583.jpg",
            "large": "https://s4.anilist.co/file/anilistcdn/media/anime/cover/medium/6583.jpg",
            "color": "#e4d643"
          },
          "startDate": {
            "year": 1992,
            "month": 5,
            "day": 17
          },
          "endDate": {
            "year": 1993,
            "month": 4,
            "day": 4
          },
          "bannerImage": null,
          "season": "SPRING",
          "description": "After of the big war between angels and demons, the Earth is almost destroyed and his cities devastated. Wanted to restore the peace and the harmony, four young child decides to fight against the army of evil that rules the world for to eradicate to the Earth and give them back to hell. <br><br>\n(Source: IMdB)",
          "type": "ANIME",
          "format": "TV",
          "status": "FINISHED",
          "episodes": 44,
          "duration": 24,
          "chapters": null,
          "volumes": null,
          "genres": [
            "Fantasy"
          ],
          "isAdult": false,
          "averageScore": null,
          "popularity": 105,
          "nextAiringEpisode": null,
          "mediaListEntry": null,
          "studios": {
            "edges": []
          }
        },
        {
          "id": 6091,
          "title": {
            "userPreferred": "Shiritsu Tantai: Toki Shouzou Trouble Note - Hard & Loose"
          },
          "coverImage": {
            "extraLarge": "https://s4.anilist.co/file/anilistcdn/media/anime/cover/medium/b6091-373artBOmxfy.png",
            "large": "https://s4.anilist.co/file/anilistcdn/media/anime/cover/medium/b6091-373artBOmxfy.png",
            "color": "#c97850"
          },
          "startDate": {
            "year": 1992,
            "month": 1,
            "day": 7
          },
          "endDate": {
            "year": 1992,
            "month": 1,
            "day": 7
          },
          "bannerImage": null,
          "season": "WINTER",
          "description": "Based on the manga by CARIBU Marley (&#29417;&#25006; &#40635;&#31036;), art by KAWAGUCHI Kaiji (&#12363;&#12431;&#12368;&#12385; &#12363;&#12356;&#12376;)",
          "type": "ANIME",
          "format": "OVA",
          "status": "FINISHED",
          "episodes": 1,
          "duration": 45,
          "chapters": null,
          "volumes": null,
          "genres": [
            "Mystery"
          ],
          "isAdult": false,
          "averageScore": null,
          "popularity": 109,
          "nextAiringEpisode": null,
          "mediaListEntry": null,
          "studios": {
            "edges": []
          }
        },
        {
          "id": 6074,
          "title": {
            "userPreferred": "21-Emon: To Space! The Barefoot Princess"
          },
          "coverImage": {
            "extraLarge": "https://s4.anilist.co/file/anilistcdn/media/anime/cover/medium/6074.jpg",
            "large": "https://s4.anilist.co/file/anilistcdn/media/anime/cover/medium/6074.jpg",
            "color": "#e4935d"
          },
          "startDate": {
            "year": 1992,
            "month": 3,
            "day": 7
          },
          "endDate": {
            "year": 1992,
            "month": 3,
            "day": 7
          },
          "bannerImage": null,
          "season": "SPRING",
          "description": null,
          "type": "ANIME",
          "format": "MOVIE",
          "status": "FINISHED",
          "episodes": 1,
          "duration": 40,
          "chapters": null,
          "volumes": null,
          "genres": [],
          "isAdult": false,
          "averageScore": null,
          "popularity": 115,
          "nextAiringEpisode": null,
          "mediaListEntry": null,
          "studios": {
            "edges": [
              {
                "isMain": true,
                "node": {
                  "id": 247,
                  "name": "Shin-Ei Animation"
                }
              }
            ]
          }
        },
        {
          "id": 6018,
          "title": {
            "userPreferred": "Patchin shite! Obaa-chan"
          },
          "coverImage": {
            "extraLarge": "https://s4.anilist.co/file/anilistcdn/media/anime/cover/medium/6018.jpg",
            "large": "https://s4.anilist.co/file/anilistcdn/media/anime/cover/medium/6018.jpg",
            "color": "#e4785d"
          },
          "startDate": {
            "year": 1992,
            "month": 3,
            "day": 10
          },
          "endDate": {
            "year": 1992,
            "month": 3,
            "day": 10
          },
          "bannerImage": null,
          "season": "SPRING",
          "description": "The story takes place in Kanazawa and tells the story of Yasue, an old woman who suddenly became very ill, her whole body paralyzed. She is told by her doctor she only has two weeks to live...",
          "type": "ANIME",
          "format": "MOVIE",
          "status": "FINISHED",
          "episodes": 1,
          "duration": 90,
          "chapters": null,
          "volumes": null,
          "genres": [
            "Drama"
          ],
          "isAdult": false,
          "averageScore": null,
          "popularity": 64,
          "nextAiringEpisode": null,
          "mediaListEntry": null,
          "studios": {
            "edges": []
          }
        },
        {
          "id": 5930,
          "title": {
            "userPreferred": "Hayou no Ken: Shikkoku no Mashou"
          },
          "coverImage": {
            "extraLarge": "https://s4.anilist.co/file/anilistcdn/media/anime/cover/medium/5930.jpg",
            "large": "https://s4.anilist.co/file/anilistcdn/media/anime/cover/medium/5930.jpg",
            "color": "#e4ae43"
          },
          "startDate": {
            "year": 1992,
            "month": 11,
            "day": 27
          },
          "endDate": {
            "year": 1992,
            "month": 12,
            "day": 25
          },
          "bannerImage": null,
          "season": "FALL",
          "description": "A resident of the Floating Castle that battle demon beings, the girl Rasutel (Rasu), chosen by the willful lady, the Demon-Breaker sword, is sent on a quest to save a princess kidnapped by a Youki. Her quest is helped by a mysterious Youki called Anshu (but he has basic color that usual Youkis do not have.... hehe!). She is also hampered in her quest by her demon-being oriented younger brother who seeks her golden eyes, the heritage of their father, the Golden Youshu. <br><br>\n(Source: AniDB)",
          "type": "ANIME",
          "format": "OVA",
          "status": "FINISHED",
          "episodes": 2,
          "duration": 30,
          "chapters": null,
          "volumes": null,
          "genres": [
            "Fantasy",
            "Supernatural"
          ],
          "isAdult": false,
          "averageScore": null,
          "popularity": 106,
          "nextAiringEpisode": null,
          "mediaListEntry": null,
          "studios": {
            "edges": []
          }
        },
        {
          "id": 5202,
          "title": {
            "userPreferred": "Chirorin Village Story"
          },
          "coverImage": {
            "extraLarge": "https://s4.anilist.co/file/anilistcdn/media/anime/cover/medium/5202.jpg",
            "large": "https://s4.anilist.co/file/anilistcdn/media/anime/cover/medium/5202.jpg",
            "color": "#e49343"
          },
          "startDate": {
            "year": 1992,
            "month": 4,
            "day": 6
          },
          "endDate": {
            "year": 1993,
            "month": 3,
            "day": 19
          },
          "bannerImage": null,
          "season": "SPRING",
          "description": "Nutsberry Town is a beautiful small country town, surrounded by shimmering lakes, lush forests and green fields. It's a place where old-fashioned values still abound. It is here that our heroes, Snappy the Onion, Wendy the Walnut and Pee Wee the Peanut, a madcap trio known as the \"Kooky Kids\" play their mischievous games.<br><br>\nNever mean-spirited or malicious, the Kooky Kids still manage to get into trouble in their non-stop quest for fun and adventure. And because Nutsberry Town is far from the hustle and bustle of video arcades, shopping malls or theme parks, the children find their fun amidst their beautiful surroundings and in their imagination.<br><br>\n(Source: enokifilmsusa.com)",
          "type": "ANIME",
          "format": "TV_SHORT",
          "status": "FINISHED",
          "episodes": 170,
          "duration": 10,
          "chapters": null,
          "volumes": null,
          "genres": [
            "Adventure"
          ],
          "isAdult": false,
          "averageScore": null,
          "popularity": 58,
          "nextAiringEpisode": null,
          "mediaListEntry": null,
          "studios": {
            "edges": []
          }
        },
        {
          "id": 5201,
          "title": {
            "userPreferred": "Tomatoman"
          },
          "coverImage": {
            "extraLarge": "https://s4.anilist.co/file/anilistcdn/media/anime/cover/medium/5201.jpg",
            "large": "https://s4.anilist.co/file/anilistcdn/media/anime/cover/medium/5201.jpg",
            "color": "#f17828"
          },
          "startDate": {
            "year": 1992,
            "month": 4,
            "day": 3
          },
          "endDate": {
            "year": 1993,
            "month": 3,
            "day": 27
          },
          "bannerImage": null,
          "season": "SPRING",
          "description": "Tomato is one of the 10 knights of the salad kindom. Young and clumsy, yet always ends up saving the day and is admired by everyone even the pretty princess peach, who he desperately falls in love with.Every episode they embark on a new journey to solve a new mission. This would be easier if only the insect band didn't get in their way every time.\n<br><br>\n(Source: Anime News Network)",
          "type": "ANIME",
          "format": "TV",
          "status": "FINISHED",
          "episodes": 50,
          "duration": 23,
          "chapters": null,
          "volumes": null,
          "genres": [
            "Adventure",
            "Comedy"
          ],
          "isAdult": false,
          "averageScore": null,
          "popularity": 160,
          "nextAiringEpisode": null,
          "mediaListEntry": null,
          "studios": {
            "edges": []
          }
        },
        {
          "id": 4468,
          "title": {
            "userPreferred": "Nagagutsu wo Haita Neko no Boken"
          },
          "coverImage": {
            "extraLarge": "https://s4.anilist.co/file/anilistcdn/media/anime/cover/medium/4468.jpg",
            "large": "https://s4.anilist.co/file/anilistcdn/media/anime/cover/medium/4468.jpg",
            "color": "#e4a15d"
          },
          "startDate": {
            "year": 1992,
            "month": 4,
            "day": 1
          },
          "endDate": {
            "year": 1992,
            "month": 9,
            "day": 23
          },
          "bannerImage": null,
          "season": "SPRING",
          "description": "Anime adaptation of Charles Perrault fairy tale, directed by Susumu Ishizaki.",
          "type": "ANIME",
          "format": "TV",
          "status": "FINISHED",
          "episodes": 26,
          "duration": 20,
          "chapters": null,
          "volumes": null,
          "genres": [
            "Adventure",
            "Fantasy"
          ],
          "isAdult": false,
          "averageScore": null,
          "popularity": 151,
          "nextAiringEpisode": null,
          "mediaListEntry": null,
          "studios": {
            "edges": []
          }
        },
        {
          "id": 3451,
          "title": {
            "userPreferred": "The Galaxy Adventures of Oz"
          },
          "coverImage": {
            "extraLarge": "https://s4.anilist.co/file/anilistcdn/media/anime/cover/medium/3451.jpg",
            "large": "https://s4.anilist.co/file/anilistcdn/media/anime/cover/medium/3451.jpg",
            "color": "#e46b50"
          },
          "startDate": {
            "year": 1992,
            "month": 10,
            "day": 5
          },
          "endDate": {
            "year": 1993,
            "month": 4,
            "day": 4
          },
          "bannerImage": null,
          "season": "FALL",
          "description": "In the year 2060, eight year old Dorothy and her dog are mysteriously swept off their planet into the wonderful, magical Galaxy of Oz. An evil witch, Gloomhilda, once ruled the Galaxy through fear and terror but was driven out by the good Dr. Oz. Now, Gloomhilda has amassed an army on the outskirts of the Galaxy and is preparing to win back her empire.Her sneak attack fails due to Dorothy's unexpected arrival. However, Dr. Oz knows Gloomhilda will return. He has a plan which will free the Galaxy of the wickedness of Gloomhilda forever. Legend tells of three magical crystals, the Crystal of Love, the Crystal of Wisdom, and the Crystal of Courage. These crystals were spread throughout the Galaxy and lost hundreds of years ago. According to the legend, whoever possesses all three crystals will rule the Galaxy of Oz for all Eternity. Under the guidance of Dr. Oz, Dorothy and an assortment of \"heroes\" set out to scour the Galaxy in search of the three magical crystals.\n<br><br>\n(Source: Anime News Network)",
          "type": "ANIME",
          "format": "TV",
          "status": "FINISHED",
          "episodes": 26,
          "duration": 25,
          "chapters": null,
          "volumes": null,
          "genres": [
            "Sci-Fi"
          ],
          "isAdult": false,
          "averageScore": null,
          "popularity": 93,
          "nextAiringEpisode": null,
          "mediaListEntry": null,
          "studios": {
            "edges": []
          }
        },
        {
          "id": 2503,
          "title": {
            "userPreferred": "Nangoku Shounen Papuwa-kun"
          },
          "coverImage": {
            "extraLarge": "https://s4.anilist.co/file/anilistcdn/media/anime/cover/medium/2503.jpg",
            "large": "https://s4.anilist.co/file/anilistcdn/media/anime/cover/medium/2503.jpg",
            "color": "#f1c950"
          },
          "startDate": {
            "year": 1992,
            "month": 10,
            "day": 10
          },
          "endDate": {
            "year": 1993,
            "month": 10,
            "day": 2
          },
          "bannerImage": null,
          "season": "FALL",
          "description": "Papuwa-kun is a young boy living a quiet life with his dog, Chappy, on a small island located somewhere in South Pacific, when Shintaro, who is being pursued by gangsters, invades their happy existence. <br>\nChappi takes Shintaro's precious Jewel, thereby making the two main characters lifelong rivals. Together they experience a series of bizarre adventures and situations. <br><br>\n(Source: AnimeNfo)&lt;br&gt;",
          "type": "ANIME",
          "format": "TV",
          "status": "FINISHED",
          "episodes": 42,
          "duration": 20,
          "chapters": null,
          "volumes": null,
          "genres": [
            "Adventure",
            "Comedy"
          ],
          "isAdult": false,
          "averageScore": null,
          "popularity": 180,
          "nextAiringEpisode": null,
          "mediaListEntry": null,
          "studios": {
            "edges": []
          }
        },
        {
          "id": 2028,
          "title": {
            "userPreferred": "Zettai Muteki Raijin Ou (1992)"
          },
          "coverImage": {
            "extraLarge": "https://s4.anilist.co/file/anilistcdn/media/anime/cover/medium/b2028-xT2CX0mFjZNe.jpg",
            "large": "https://s4.anilist.co/file/anilistcdn/media/anime/cover/medium/b2028-xT2CX0mFjZNe.jpg",
            "color": "#e4c943"
          },
          "startDate": {
            "year": 1992,
            "month": 9,
            "day": 30
          },
          "endDate": {
            "year": 1993,
            "month": 2,
            "day": 24
          },
          "bannerImage": null,
          "season": "FALL",
          "description": "Continues the story of the TV series.",
          "type": "ANIME",
          "format": "OVA",
          "status": "FINISHED",
          "episodes": 4,
          "duration": 29,
          "chapters": null,
          "volumes": null,
          "genres": [
            "Action",
            "Mecha",
            "Sci-Fi"
          ],
          "isAdult": false,
          "averageScore": null,
          "popularity": 136,
          "nextAiringEpisode": null,
          "mediaListEntry": null,
          "studios": {
            "edges": []
          }
        }
      ]
    }
  }
}
