{
  "data": {
    "Page": {
      "pageInfo": {
        "total": 158,
        "perPage": 50,
        "currentPage": 4,
        "lastPage": 4,
        "hasNextPage": false
      },
      "media": [
        {
          "id": 7639,
          "title": {
            "userPreferred": "Shounen Santa no Daibouken"
          },
          "coverImage": {
            "extraLarge": "https://s4.anilist.co/file/anilistcdn/media/anime/cover/medium/7639.jpg",
            "large": "https://s4.anilist.co/file/anilistcdn/media/anime/cover/medium/7639.jpg",
            "color": "#a15035"
          },
          "startDate": {
            "year": 1996,
            "month": 4,
            "day": 6
          },
          "endDate": {
            "year": 1996,
            "month": 9,
            "day": 21
          },
          "bannerImage": null,
          "season": "SPRING",
          "description": "Based on L. Frank Baum' novel: The Life and Adventures of Santa Claus.",
          "type": "ANIME",
          "format": "TV",
          "status": "FINISHED",
          "episodes": 24,
          "duration": 23,
          "chapters": null,
          "volumes": null,
          "genres": [
            "Adventure",
            "Fantasy"
          ],
          "isAdult": false,
          "averageScore": null,
          "popularity": 104,
          "nextAiringEpisode": null,
          "mediaListEntry": null,
          "studios": {
            "edges": []
          }
        },
        {
          "id": 5916,
          "title": {
            "userPreferred": "Home of Acorns"
          },
          "coverImage": {
            "extraLarge": "https://s4.anilist.co/file/anilistcdn/media/anime/cover/medium/5916.jpg",
            "large": "https://s4.anilist.co/file/anilistcdn/media/anime/cover/medium/5916.jpg",
            "color": "#ffd635"
          },
          "startDate": {
            "year": 1996,
            "month": null,
            "day": null
          },
          "endDate": {
            "year": 1996,
            "month": null,
            "day": null
          },
          "bannerImage": null,
          "season": null,
          "description": "The Takazis' only daughter named Keiko was born seriously handicapped, deaf and dumb and mentally handicapped. Her parents tried to accept her handicap but their suffering continued.<br>\nThings changed after Keiko entered a deaf and dumb school. Not only Keiko but also her parents grew up with friendship and cooperation of the teachers and friends. They established a group named \"Donguri\" (acorn) to make a community workshop where the handicapped people could be independent.<br><br>\n(source :jfkl.org)",
          "type": "ANIME",
          "format": "MOVIE",
          "status": "FINISHED",
          "episodes": 1,
          "duration": 100,
          "chapters": null,
          "volumes": null,
          "genres": [
            "Drama"
          ],
          "isAdult": false,
          "averageScore": null,
          "popularity": 93,
          "nextAiringEpisode": null,
          "mediaListEntry": null,
          "studios": {
            "edges": []
          }
        },
        {
          "id": 4201,
          "title": {
            "userPreferred": "Chocchan Monogatari"
          },
          "coverImage": {
            "extraLarge": "https://s4.anilist.co/file/anilistcdn/media/anime/cover/medium/4201.jpg",
            "large": "https://s4.anilist.co/file/anilistcdn/media/anime/cover/medium/4201.jpg",
            "color": "#e47843"
          },
          "startDate": {
            "year": 1996,
            "month": 3,
            "day": 20
          },
          "endDate": {
            "year": 1996,
            "month": 3,
            "day": 20
          },
          "bannerImage": null,
          "season": "SPRING",
          "description": "This feature length film is based on autobiography of Cho \"Chocchan\" Kuroyanagi, who is better known as the mother of an actress Tetsuko Kuroyanagi.<br><br>\nThe story starts in pre-World War 2 Japan when Chocchan marries violinist despite the objection of both of their families. They live in poverty, have three children and are happy together. Any misfortune they face with a smile. But new obstacle for their happiness comes when the war breaks out and Chocchan's husband must leave for the front...",
          "type": "ANIME",
          "format": "MOVIE",
          "status": "FINISHED",
          "episodes": 1,
          "duration": 76,
          "chapters": null,
          "volumes": null,
          "genres": [
            "Drama",
            "Slice of Life"
          ],
          "isAdult": false,
          "averageScore": null,
          "popularity": 234,
          "nextAiringEpisode": null,
          "mediaListEntry": null,
          "studios": {
            "edges": []
          }
        },
        {
          "id": 2710,
          "title": {
            "userPreferred": "Nintama Rantarou Movie"
          },
          "coverImage": {
            "extraLarge": "https://s4.anilist.co/file/anilistcdn/media/anime/cover/medium/2710.jpg",
            "large": "https://s4.anilist.co/file/anilistcdn/media/anime/cover/medium/2710.jpg",
            "color": "#f1f1a1"
          },
          "startDate": {
            "year": 1996,
            "month": 6,
            "day": 29
          },
          "endDate": {
            "year": 1996,
            "month": 6,
            "day": 29
          },
          "bannerImage": null,
          "season": "SUMMER",
          "description": null,
          "type": "ANIME",
          "format": "MOVIE",
          "status": "FINISHED",
          "episodes": 1,
          "duration": 45,
          "chapters": null,
          "volumes": null,
          "genres": [
            "Comedy"
          ],
          "isAdult": false,
          "averageScore": null,
          "popularity": 147,
          "nextAiringEpisode": null,
          "mediaListEntry": null,
          "studios": {
            "edges": []
          }
        },
        {
          "id": 2708,
          "title": {
            "userPreferred": "Wankorobee"
          },
          "coverImage": {
            "extraLarge": "https://s4.anilist.co/file/anilistcdn/media/anime/cover/medium/2708.jpg",
            "large": "https://s4.anilist.co/file/anilistcdn/media/anime/cover/medium/2708.jpg",
            "color": "#e4a143"
          },
          "startDate": {
            "year": 1996,
            "month": 10,
            "day": 6
          },
          "endDate": {
            "year": 1997,
            "month": 3,
            "day": 30
          },
          "bannerImage": null,
          "season": "FALL",
          "description": "N/A",
          "type": "ANIME",
          "format": "TV",
          "status": "FINISHED",
          "episodes": 26,
          "duration": 20,
          "chapters": null,
          "volumes": null,
          "genres": [
            "Comedy",
            "Fantasy"
          ],
          "isAdult": false,
          "averageScore": null,
          "popularity": 92,
          "nextAiringEpisode": null,
          "mediaListEntry": null,
          "studios": {
            "edges": [
              {
                "isMain": true,
                "node": {
                  "id": 30,
                  "name": "Ajiado"
                }
              },
              {
                "isMain": true,
                "node": {
                  "id": 73,
                  "name": "TMS Entertainment"
                }
              }
            ]
          }
        },
        {
          "id": 2075,
          "title": {
            "userPreferred": "Kiko-chan Smile"
          },
          "coverImage": {
            "extraLarge": "https://s4.anilist.co/file/anilistcdn/media/anime/cover/medium/2075.jpg",
            "large": "https://s4.anilist.co/file/anilistcdn/media/anime/cover/medium/2075.jpg",
            "color": null
          },
          "startDate": {
            "year": 1996,
            "month": 10,
            "day": 5
          },
          "endDate": {
            "year": 1997,
            "month": 9,
            "day": 27
          },
          "bannerImage": null,
          "season": "FALL",
          "description": "Kiko-chan's Smile is an anime and manga series about a kindergarten student who has many of the features of a child prodigy but at the same time has many bizarre habits and an odd personailty.",
          "type": "ANIME",
          "format": "TV",
          "status": "FINISHED",
          "episodes": 51,
          "duration": 20,
          "chapters": null,
          "volumes": null,
          "genres": [
            "Adventure",
            "Comedy",
            "Slice of Life"
          ],
          "isAdult": false,
          "averageScore": null,
          "popularity": 219,
          "nextAiringEpisode": null,
          "mediaListEntry": null,
          "studios": {
            "edges": []
          }
        },
        {
          "id": 1851,
          "title": {
            "userPreferred": "Lord of Lords Ryu Knight: Adeu's Legend Final"
          },
          "coverImage": {
            "extraLarge": "https://s4.anilist.co/file/anilistcdn/media/anime/cover/large/bx1851-kyU6DiCv6lyV.png",
            "large": "https://s4.anilist.co/file/anilistcdn/media/anime/cover/medium/bx1851-kyU6DiCv6lyV.png",
            "color": "#ffd643"
          },
          "startDate": {
            "year": 1996,
            "month": 5,
            "day": 25
          },
          "endDate": {
            "year": 1996,
            "month": 5,
            "day": 25
          },
          "bannerImage": null,
          "season": "SPRING",
          "description": "End of the series.",
          "type": "ANIME",
          "format": "OVA",
          "status": "FINISHED",
          "episodes": 1,
          "duration": 30,
          "chapters": null,
          "volumes": null,
          "genres": [
            "Adventure",
            "Fantasy",
            "Mecha"
          ],
          "isAdult": false,
          "averageScore": null,
          "popularity": 175,
          "nextAiringEpisode": null,
          "mediaListEntry": null,
          "studios": {
            "edges": [
              {
                "isMain": true,
                "node": {
                  "id": 14,
                  "name": "Sunrise"
                }
              }
            ]
          }
        },
        {
          "id": 1396,
          "title": {
            "userPreferred": "Future GPX Cyber Formula: Early Days Renewal"
          },
          "coverImage": {
            "extraLarge": "https://s4.anilist.co/file/anilistcdn/media/anime/cover/large/bx1396-rO2GYtai0pI7.png",
            "large": "https://s4.anilist.co/file/anilistcdn/media/anime/cover/medium/bx1396-rO2GYtai0pI7.png",
            "color": "#e4a15d"
          },
          "startDate": {
            "year": 1996,
            "month": 4,
            "day": 1
          },
          "endDate": {
            "year": 1996,
            "month": 6,
            "day": 1
          },
          "bannerImage": null,
          "season": "SPRING",
          "description": null,
          "type": "ANIME",
          "format": "OVA",
          "status": "FINISHED",
          "episodes": 2,
          "duration": 58,
          "chapters": null,
          "volumes": null,
          "genres": [
            "Drama",
            "Sci-Fi",
            "Sports"
          ],
          "isAdult": false,
          "averageScore": null,
          "popularity": 135,
          "nextAiringEpisode": null,
          "mediaListEntry": null,
          "studios": {
            "edges": [
              {
                "isMain": true,
                "node": {
                  "id": 14,
                  "name": "Sunrise"
                }
              }
            ]
          }
        }
      ]
    }
  }
}
