{
  "data": {
    "Page": {
      "pageInfo": {
        "total": 164,
        "perPage": 50,
        "currentPage": 4,
        "lastPage": 4,
        "hasNextPage": false
      },
      "media": [
        {
          "id": 9948,
          "title": {
            "userPreferred": "Wo Wei Ge Kuang"
          },
          "coverImage": {
            "extraLarge": "https://s4.anilist.co/file/anilistcdn/media/anime/cover/medium/9948.jpg",
            "large": "https://s4.anilist.co/file/anilistcdn/media/anime/cover/medium/9948.jpg",
            "color": "#f17850"
          },
          "startDate": {
            "year": 2000,
            "month": null,
            "day": null
          },
          "endDate": {
            "year": 2001,
            "month": null,
            "day": null
          },
          "bannerImage": null,
          "season": null,
          "description": "Four young teenage boys share a common vision and passion for music. They come together overlapping their own personalities and ideas. In the process, they encounter a lot of difficulties as any youth might have. The story is unfolded as the band grows up. Academic, personal conflicts, family, friendship and emotional problems are all intertwined. With the help of teachers, students, and friends they try to achieve their dreams.<br><br>\r\n(Source: Wikipedia)",
          "type": "ANIME",
          "format": "TV",
          "status": "FINISHED",
          "episodes": 52,
          "duration": 22,
          "chapters": null,
          "volumes": null,
          "genres": [
            "Music"
          ],
          "isAdult": false,
          "averageScore": null,
          "popularity": 88,
          "nextAiringEpisode": null,
          "mediaListEntry": null,
          "studios": {
            "edges": [
              {
                "isMain": true,
                "node": {
                  "id": 471,
                  "name": "Shanghai Animation Film Studio"
                }
              }
            ]
          }
        },
        {
          "id": 9903,
          "title": {
            "userPreferred": "Chi Dor Dor, Chi Dor Dor"
          },
          "coverImage": {
            "extraLarge": "https://s4.anilist.co/file/anilistcdn/media/anime/cover/medium/9903.jpg",
            "large": "https://s4.anilist.co/file/anilistcdn/media/anime/cover/medium/9903.jpg",
            "color": "#f1e435"
          },
          "startDate": {
            "year": 2000,
            "month": null,
            "day": null
          },
          "endDate": {
            "year": 2000,
            "month": null,
            "day": null
          },
          "bannerImage": null,
          "season": null,
          "description": "Chi Dor Dor is a squirrel boy, and another Chi Dor Dor, is a rabbit detective who always follows Chi Dor Dor to ensure him doing everything right. This series is used to spread the idea of anti-corruption to the kids.",
          "type": "ANIME",
          "format": "TV_SHORT",
          "status": "FINISHED",
          "episodes": 15,
          "duration": 5,
          "chapters": null,
          "volumes": null,
          "genres": [],
          "isAdult": false,
          "averageScore": null,
          "popularity": 63,
          "nextAiringEpisode": null,
          "mediaListEntry": null,
          "studios": {
            "edges": []
          }
        },
        {
          "id": 9900,
          "title": {
            "userPreferred": "Hamster Club"
          },
          "coverImage": {
            "extraLarge": "https://s4.anilist.co/file/anilistcdn/media/anime/cover/medium/9900.jpg",
            "large": "https://s4.anilist.co/file/anilistcdn/media/anime/cover/medium/9900.jpg",
            "color": "#f1bb1a"
          },
          "startDate": {
            "year": 2000,
            "month": null,
            "day": null
          },
          "endDate": {
            "year": 2000,
            "month": null,
            "day": null
          },
          "bannerImage": null,
          "season": null,
          "description": "Hamster daily life.",
          "type": "ANIME",
          "format": "TV_SHORT",
          "status": "FINISHED",
          "episodes": 140,
          "duration": 5,
          "chapters": null,
          "volumes": null,
          "genres": [],
          "isAdult": false,
          "averageScore": null,
          "popularity": 192,
          "nextAiringEpisode": null,
          "mediaListEntry": null,
          "studios": {
            "edges": []
          }
        },
        {
          "id": 9829,
          "title": {
            "userPreferred": "The Truth of Japanese Fairy Tales"
          },
          "coverImage": {
            "extraLarge": "https://s4.anilist.co/file/anilistcdn/media/anime/cover/medium/9829.jpg",
            "large": "https://s4.anilist.co/file/anilistcdn/media/anime/cover/medium/9829.jpg",
            "color": "#865028"
          },
          "startDate": {
            "year": 2000,
            "month": null,
            "day": null
          },
          "endDate": {
            "year": 2000,
            "month": null,
            "day": null
          },
          "bannerImage": null,
          "season": null,
          "description": "The horrible truths behind Japanese Fairy Tales from the ancient times are finally revealed! This title includes three episodes: \"The Monkey and the Crab\", \"Click-Crack Mountain\" and \"Urashima and the Kingdom beneath the Sea\".<br><br>\n(Source: Official Website)",
          "type": "ANIME",
          "format": "OVA",
          "status": "FINISHED",
          "episodes": 3,
          "duration": 18,
          "chapters": null,
          "volumes": null,
          "genres": [
            "Horror",
            "Psychological"
          ],
          "isAdult": false,
          "averageScore": null,
          "popularity": 226,
          "nextAiringEpisode": null,
          "mediaListEntry": null,
          "studios": {
            "edges": []
          }
        },
        {
          "id": 9451,
          "title": {
            "userPreferred": "Sore Ike! Anpanman: Ningyo Hime no Namida"
          },
          "coverImage": {
            "extraLarge": "https://s4.anilist.co/file/anilistcdn/media/anime/cover/medium/9451.jpg",
            "large": "https://s4.anilist.co/file/anilistcdn/media/anime/cover/medium/9451.jpg",
            "color": "#f1a10d"
          },
          "startDate": {
            "year": 2000,
            "month": 7,
            "day": 29
          },
          "endDate": {
            "year": 2000,
            "month": 7,
            "day": 29
          },
          "bannerImage": null,
          "season": "SUMMER",
          "description": null,
          "type": "ANIME",
          "format": "MOVIE",
          "status": "FINISHED",
          "episodes": 1,
          "duration": 55,
          "chapters": null,
          "volumes": null,
          "genres": [
            "Comedy"
          ],
          "isAdult": false,
          "averageScore": null,
          "popularity": 90,
          "nextAiringEpisode": null,
          "mediaListEntry": null,
          "studios": {
            "edges": []
          }
        },
        {
          "id": 8220,
          "title": {
            "userPreferred": "Baby Felix"
          },
          "coverImage": {
            "extraLarge": "https://s4.anilist.co/file/anilistcdn/media/anime/cover/medium/8220.jpg",
            "large": "https://s4.anilist.co/file/anilistcdn/media/anime/cover/medium/8220.jpg",
            "color": "#f1bb43"
          },
          "startDate": {
            "year": 2000,
            "month": 10,
            "day": 8
          },
          "endDate": {
            "year": 2001,
            "month": 6,
            "day": 29
          },
          "bannerImage": null,
          "season": "FALL",
          "description": "A young Felix the Cat and his baby pals find fun and mischief along their travels.",
          "type": "ANIME",
          "format": "TV_SHORT",
          "status": "FINISHED",
          "episodes": 65,
          "duration": 12,
          "chapters": null,
          "volumes": null,
          "genres": [
            "Comedy"
          ],
          "isAdult": false,
          "averageScore": null,
          "popularity": 125,
          "nextAiringEpisode": null,
          "mediaListEntry": null,
          "studios": {
            "edges": [
              {
                "isMain": true,
                "node": {
                  "id": 81,
                  "name": "Radix"
                }
              }
            ]
          }
        },
        {
          "id": 7715,
          "title": {
            "userPreferred": "Auto Mommy"
          },
          "coverImage": {
            "extraLarge": "https://s4.anilist.co/file/anilistcdn/media/anime/cover/medium/7715.jpg",
            "large": "https://s4.anilist.co/file/anilistcdn/media/anime/cover/medium/7715.jpg",
            "color": "#d6861a"
          },
          "startDate": {
            "year": 2000,
            "month": 4,
            "day": 16
          },
          "endDate": {
            "year": 2000,
            "month": 4,
            "day": 16
          },
          "bannerImage": null,
          "season": "SPRING",
          "description": "Parents who don't want to take care of their child leave parenting to the mail ordered robot \"Auto Mommy\" and allow their child to be raised in isolation.<br><br>\nOne day, they take a look at the monitor to check the child, and then they see the child wearing dog skin and hiding his face. This is not good, the parents think, because they can't send the child to school like this. So they make Auto Mommy peel the dog skin off the child, only to find that the child became a plant without a human face.",
          "type": "ANIME",
          "format": "MOVIE",
          "status": "FINISHED",
          "episodes": 1,
          "duration": 12,
          "chapters": null,
          "volumes": null,
          "genres": [
            "Fantasy"
          ],
          "isAdult": false,
          "averageScore": null,
          "popularity": 88,
          "nextAiringEpisode": null,
          "mediaListEntry": null,
          "studios": {
            "edges": []
          }
        },
        {
          "id": 6412,
          "title": {
            "userPreferred": "Yuki Terai"
          },
          "coverImage": {
            "extraLarge": "https://s4.anilist.co/file/anilistcdn/media/anime/cover/medium/6412.jpg",
            "large": "https://s4.anilist.co/file/anilistcdn/media/anime/cover/medium/6412.jpg",
            "color": "#e4935d"
          },
          "startDate": {
            "year": 2000,
            "month": 9,
            "day": 20
          },
          "endDate": {
            "year": 2000,
            "month": 9,
            "day": 20
          },
          "bannerImage": null,
          "season": "FALL",
          "description": "YUKI TERAI is a vivacious 17-year-old who lives just outside Tokyo. In most ways she is every bit the typical teen - except she doesn't exist.<br><br>\nThe invention of acclaimed computer animator Kenichi Kutsugi, Yuki Terai is Japan's No.1 Virtual Star. Capable of unprecedented life-like expressions and movement, she inhabits many worlds: real-life, science fiction and music. And now she can inhabit yours.<br><br>\nIn Secrets, the multi-faceted Yuki is showcased in six irresistible short stories. In Fly Away Alone, she plays a sensuous songbird; Dos/Chin, which also happens to be the name of her mischievous robotic dog, finds Yuki exploring her artistic side; A Life is a meditative piece where Yuki reflects on happier times; in fully-fledged Matrix mode, Comet The Thief stars our idol as a mischievous martial-arts bandit; The Mirror explores the darker side of Yuki as she is mysteriously followed by images of herself that seem to emerge from mirrors; and in Lazy Gui, our scantily-clad heroine embarks on a race against time as her Space Freighter is set for self-destruct.<br><br>\nIncludes two awesome bonuses: the music video of Yuki's smash hit, My Dearest You, and the incredible World War II air attack recreation, Project BB-11. Additional extras include The Making Of..., which explains the techniques and tricks used to create the state-of-the-art animation that gives life to this virtual megastar.<br><br>\nWelcome to the worlds of Yuki Terai. Enter.. and your world will never be the same. <br><br>\nfrom AniDB",
          "type": "ANIME",
          "format": "OVA",
          "status": "FINISHED",
          "episodes": 6,
          "duration": 6,
          "chapters": null,
          "volumes": null,
          "genres": [
            "Music"
          ],
          "isAdult": false,
          "averageScore": null,
          "popularity": 121,
          "nextAiringEpisode": null,
          "mediaListEntry": null,
          "studios": {
            "edges": []
          }
        },
        {
          "id": 5987,
          "title": {
            "userPreferred": "Marin to Yamato: Fushigi na Nichiyoubi"
          },
          "coverImage": {
            "extraLarge": "https://s4.anilist.co/file/anilistcdn/media/anime/cover/medium/b5987-iNJ2dsjMEKz1.jpg",
            "large": "https://s4.anilist.co/file/anilistcdn/media/anime/cover/medium/b5987-iNJ2dsjMEKz1.jpg",
            "color": "#f1f15d"
          },
          "startDate": {
            "year": 2000,
            "month": 12,
            "day": 2
          },
          "endDate": {
            "year": 2000,
            "month": 12,
            "day": 2
          },
          "bannerImage": null,
          "season": "WINTER",
          "description": "Two children, Marin and Yamato, found a mysterious fairy in a park.",
          "type": "ANIME",
          "format": "OVA",
          "status": "FINISHED",
          "episodes": 1,
          "duration": 17,
          "chapters": null,
          "volumes": null,
          "genres": [],
          "isAdult": false,
          "averageScore": null,
          "popularity": 82,
          "nextAiringEpisode": null,
          "mediaListEntry": null,
          "studios": {
            "edges": []
          }
        },
        {
          "id": 5943,
          "title": {
            "userPreferred": "The Aurora"
          },
          "coverImage": {
            "extraLarge": "https://s4.anilist.co/file/anilistcdn/media/anime/cover/medium/5943.jpg",
            "large": "https://s4.anilist.co/file/anilistcdn/media/anime/cover/medium/5943.jpg",
            "color": "#1a4386"
          },
          "startDate": {
            "year": 2000,
            "month": 8,
            "day": 5
          },
          "endDate": {
            "year": 2000,
            "month": 8,
            "day": 5
          },
          "bannerImage": null,
          "season": "SUMMER",
          "description": "Deep-sea archeologist Hiroshi Ibuki is the member of the digging team working at the bottom of the sea hoping to uncover the origins of Earth's existence but instead uncovers a mysterious colony of bacteria which gives off light similar to the Aurora Borealis. The ancient bacteria, once revived, attempt to make the world habitable for themselves &mdash;a process that would bring Earth back to its early primal form, killing all current life in the process. <br><br>\n(Source: AnimeNFO) ",
          "type": "ANIME",
          "format": "MOVIE",
          "status": "FINISHED",
          "episodes": 1,
          "duration": 91,
          "chapters": null,
          "volumes": null,
          "genres": [
            "Adventure",
            "Sci-Fi"
          ],
          "isAdult": false,
          "averageScore": null,
          "popularity": 99,
          "nextAiringEpisode": null,
          "mediaListEntry": null,
          "studios": {
            "edges": []
          }
        },
        {
          "id": 5475,
          "title": {
            "userPreferred": "Time Bokan 2000: Kaitou Kiramekiman"
          },
          "coverImage": {
            "extraLarge": "https://s4.anilist.co/file/anilistcdn/media/anime/cover/large/bx5475-IJJMGHRcklYW.png",
            "large": "https://s4.anilist.co/file/anilistcdn/media/anime/cover/medium/bx5475-IJJMGHRcklYW.png",
            "color": "#d6931a"
          },
          "startDate": {
            "year": 2000,
            "month": 4,
            "day": 5
          },
          "endDate": {
            "year": 2000,
            "month": 10,
            "day": 4
          },
          "bannerImage": "https://s4.anilist.co/file/anilistcdn/media/anime/banner/5475-zLqwamBW6ntS.jpg",
          "season": "SPRING",
          "description": "Set in the near future, the world is shaken by a couple of young thieves named Kiramekiman, who issue warnings before they go into action. Once they set their sights on a target, they never fail to steal it. Meanwhile, a detective trio is in pursuit of the Kiramekiman group but are unable to catch them. Secretly, the goal of Kiramekiman is actually noble, since they are only stealing certain objects in order to maintain peace in the future. <br><br>(Source: Wikipedia)",
          "type": "ANIME",
          "format": "TV",
          "status": "FINISHED",
          "episodes": 26,
          "duration": 20,
          "chapters": null,
          "volumes": null,
          "genres": [
            "Action",
            "Adventure"
          ],
          "isAdult": false,
          "averageScore": null,
          "popularity": 206,
          "nextAiringEpisode": null,
          "mediaListEntry": null,
          "studios": {
            "edges": [
              {
                "isMain": true,
                "node": {
                  "id": 103,
                  "name": "Tatsunoko Production"
                }
              }
            ]
          }
        },
        {
          "id": 5314,
          "title": {
            "userPreferred": "Rokumon Tengai Mon Colle Knight Movie: Densetsu no Fire Dragon"
          },
          "coverImage": {
            "extraLarge": "https://s4.anilist.co/file/anilistcdn/media/anime/cover/medium/5314.jpg",
            "large": "https://s4.anilist.co/file/anilistcdn/media/anime/cover/medium/5314.jpg",
            "color": "#bb8635"
          },
          "startDate": {
            "year": 2000,
            "month": 12,
            "day": 21
          },
          "endDate": {
            "year": 2000,
            "month": 12,
            "day": 21
          },
          "bannerImage": null,
          "season": "FALL",
          "description": "An alternative interpretation of the series' start.",
          "type": "ANIME",
          "format": "MOVIE",
          "status": "FINISHED",
          "episodes": 1,
          "duration": 32,
          "chapters": null,
          "volumes": null,
          "genres": [
            "Adventure",
            "Comedy",
            "Fantasy"
          ],
          "isAdult": false,
          "averageScore": null,
          "popularity": 167,
          "nextAiringEpisode": null,
          "mediaListEntry": null,
          "studios": {
            "edges": []
          }
        },
        {
          "id": 5088,
          "title": {
            "userPreferred": "Dr. Fabre is a Detective"
          },
          "coverImage": {
            "extraLarge": "https://s4.anilist.co/file/anilistcdn/media/anime/cover/medium/5088.jpg",
            "large": "https://s4.anilist.co/file/anilistcdn/media/anime/cover/medium/5088.jpg",
            "color": "#f1f15d"
          },
          "startDate": {
            "year": 2000,
            "month": 4,
            "day": 11
          },
          "endDate": {
            "year": 2000,
            "month": 10,
            "day": 17
          },
          "bannerImage": null,
          "season": "SPRING",
          "description": "The world of insects is full of enchantment and amazement. This animation series is inspired by \"the Diary of Insects\" written by Jean Henri Fabre, an outstanding French entomologist and author in the 19th Century. In his original works, Mr. Fabre vividly described the life of insects. In this series all the insects and bugs have been personified and drawn into marvelous animated characters.<br><br>\nThis is the story of the exciting adventures of a crime-buster in the world of insects! Our hero's way of investigation is so unique and always ends with surprising solutions. The interesting ecology of various insects will be described while our 'cool' hero, Inspector Fabre, analyzes and unties the knots of crimes and conspiracy a la fashion of Sherlock Holmes!",
          "type": "ANIME",
          "format": "TV",
          "status": "FINISHED",
          "episodes": 26,
          "duration": 25,
          "chapters": null,
          "volumes": null,
          "genres": [
            "Mystery"
          ],
          "isAdult": false,
          "averageScore": null,
          "popularity": 149,
          "nextAiringEpisode": null,
          "mediaListEntry": null,
          "studios": {
            "edges": []
          }
        },
        {
          "id": 3458,
          "title": {
            "userPreferred": "Pi Po Pa Po Patrol"
          },
          "coverImage": {
            "extraLarge": "https://s4.anilist.co/file/anilistcdn/media/anime/cover/medium/3458.jpg",
            "large": "https://s4.anilist.co/file/anilistcdn/media/anime/cover/medium/3458.jpg",
            "color": "#43aef1"
          },
          "startDate": {
            "year": 2000,
            "month": 12,
            "day": 4
          },
          "endDate": {
            "year": 2001,
            "month": 3,
            "day": 7
          },
          "bannerImage": null,
          "season": "WINTER",
          "description": "A children's anime about police and their talking police cars.<br>\nIt has no steady plot.",
          "type": "ANIME",
          "format": "TV_SHORT",
          "status": "FINISHED",
          "episodes": 65,
          "duration": 5,
          "chapters": null,
          "volumes": null,
          "genres": [
            "Comedy"
          ],
          "isAdult": false,
          "averageScore": null,
          "popularity": 197,
          "nextAiringEpisode": null,
          "mediaListEntry": null,
          "studios": {
            "edges": []
          }
        }
      ]
    }
  }
}
