{
  "data": {
    "Page": {
      "pageInfo": {
        "total": 212,
        "perPage": 50,
        "currentPage": 5,
        "lastPage": 5,
        "hasNextPage": false
      },
      "media": [
        {
          "id": 9433,
          "title": {
            "userPreferred": "A-jang.com"
          },
          "coverImage": {
            "extraLarge": "https://s4.anilist.co/file/anilistcdn/media/anime/cover/medium/9433.jpg",
            "large": "https://s4.anilist.co/file/anilistcdn/media/anime/cover/medium/9433.jpg",
            "color": "#f1bb5d"
          },
          "startDate": {
            "year": 2001,
            "month": 11,
            "day": 22
          },
          "endDate": {
            "year": 2001,
            "month": 12,
            "day": 22
          },
          "bannerImage": null,
          "season": null,
          "description": "The spirit world, the real world and the Internet cyber world maintain peace and harmony by the Dimension stone, which was created by the three deities named Dragon King, Zeus and Zoolu. One day, Doddery had a date therefore he switched the stone guard duty with the Super Baby by bribing him with milk. A-jang fights hard with LuPin and Pigu till the end but in that process something goes wrong with the Dimension Stone and due to that unusual energy Spirit world becomes chaotic. Many spirits including LuPin and Pigu falls into cyber space and A-jang just manages to escape. <br><br>\n(Source: tvkanald.rs)",
          "type": "ANIME",
          "format": "TV",
          "status": "FINISHED",
          "episodes": 13,
          "duration": 30,
          "chapters": null,
          "volumes": null,
          "genres": [
            "Fantasy"
          ],
          "isAdult": false,
          "averageScore": null,
          "popularity": 117,
          "nextAiringEpisode": null,
          "mediaListEntry": null,
          "studios": {
            "edges": []
          }
        },
        {
          "id": 7960,
          "title": {
            "userPreferred": "Pachislo Kizoku Gin"
          },
          "coverImage": {
            "extraLarge": "https://s4.anilist.co/file/anilistcdn/media/anime/cover/large/bx7960-WAXx1yEj9lx6.jpg",
            "large": "https://s4.anilist.co/file/anilistcdn/media/anime/cover/medium/bx7960-WAXx1yEj9lx6.jpg",
            "color": "#c9d6f1"
          },
          "startDate": {
            "year": 2001,
            "month": 4,
            "day": 11
          },
          "endDate": {
            "year": 2001,
            "month": 9,
            "day": 12
          },
          "bannerImage": null,
          "season": "SPRING",
          "description": "It's a Pachisuro (Pachinko) anime about Ginya Otonashi who writes articles for a Pachinko magazine.",
          "type": "ANIME",
          "format": "TV",
          "status": "FINISHED",
          "episodes": 23,
          "duration": 25,
          "chapters": null,
          "volumes": null,
          "genres": [
            "Action"
          ],
          "isAdult": false,
          "averageScore": null,
          "popularity": 221,
          "nextAiringEpisode": null,
          "mediaListEntry": null,
          "studios": {
            "edges": []
          }
        },
        {
          "id": 7452,
          "title": {
            "userPreferred": "Mini Moni Yaru no da Pyon!"
          },
          "coverImage": {
            "extraLarge": "https://s4.anilist.co/file/anilistcdn/media/anime/cover/medium/7452.jpg",
            "large": "https://s4.anilist.co/file/anilistcdn/media/anime/cover/medium/7452.jpg",
            "color": "#e4d650"
          },
          "startDate": {
            "year": 2001,
            "month": 6,
            "day": 4
          },
          "endDate": {
            "year": 2001,
            "month": 10,
            "day": 26
          },
          "bannerImage": null,
          "season": "SUMMER",
          "description": "The very tiny adventures of the equally tiny bright and happy J-pop group Mini Moni, without a real continued plot between each short.\n<br><br>\n(Source: Anime News Network)",
          "type": "ANIME",
          "format": "TV_SHORT",
          "status": "FINISHED",
          "episodes": 66,
          "duration": 1,
          "chapters": null,
          "volumes": null,
          "genres": [
            "Comedy"
          ],
          "isAdult": false,
          "averageScore": null,
          "popularity": 113,
          "nextAiringEpisode": null,
          "mediaListEntry": null,
          "studios": {
            "edges": []
          }
        },
        {
          "id": 7109,
          "title": {
            "userPreferred": "Captain Fatz and the Seamorphs"
          },
          "coverImage": {
            "extraLarge": "https://s4.anilist.co/file/anilistcdn/media/anime/cover/medium/7109.jpg",
            "large": "https://s4.anilist.co/file/anilistcdn/media/anime/cover/medium/7109.jpg",
            "color": "#e49328"
          },
          "startDate": {
            "year": 2001,
            "month": 4,
            "day": 7
          },
          "endDate": {
            "year": 2002,
            "month": 3,
            "day": 30
          },
          "bannerImage": null,
          "season": "SPRING",
          "description": "With the ability to transcend time, Captain Fatz and comrades embarked on a journey of battle and adventure to gather the eight scattered stone pieces (namely Light, Darkness, Fire, Water, Air, Earth, Wood &amp; Metal) which was granulated by the lord of destruction, in order to restore the chaotic world back to peace.",
          "type": "ANIME",
          "format": "TV",
          "status": "FINISHED",
          "episodes": 52,
          "duration": 25,
          "chapters": null,
          "volumes": null,
          "genres": [
            "Action",
            "Adventure",
            "Fantasy"
          ],
          "isAdult": false,
          "averageScore": null,
          "popularity": 109,
          "nextAiringEpisode": null,
          "mediaListEntry": null,
          "studios": {
            "edges": []
          }
        },
        {
          "id": 6625,
          "title": {
            "userPreferred": "Nono-chan"
          },
          "coverImage": {
            "extraLarge": "https://s4.anilist.co/file/anilistcdn/media/anime/cover/medium/6625.jpg",
            "large": "https://s4.anilist.co/file/anilistcdn/media/anime/cover/medium/6625.jpg",
            "color": "#f1d65d"
          },
          "startDate": {
            "year": 2001,
            "month": 7,
            "day": 7
          },
          "endDate": {
            "year": 2002,
            "month": 9,
            "day": 28
          },
          "bannerImage": null,
          "season": "SUMMER",
          "description": "Nono-chan is the eldest daughter in the Yamada family and a third-grade elementary school student. Her family consists of her father, Mr Yamada Takashi, her mother, Mrs Yamada Matsuko and her brother, Noboru, a junior high student. Together with her grandmother, the family of five makes up a pleasant Japanese family. Everyone is special and everyday is always filled with joy and surprise.\n<br><br>\n(Source: Anime News Network)",
          "type": "ANIME",
          "format": "TV",
          "status": "FINISHED",
          "episodes": 61,
          "duration": 25,
          "chapters": null,
          "volumes": null,
          "genres": [
            "Comedy",
            "Slice of Life"
          ],
          "isAdult": false,
          "averageScore": null,
          "popularity": 227,
          "nextAiringEpisode": null,
          "mediaListEntry": null,
          "studios": {
            "edges": []
          }
        },
        {
          "id": 6579,
          "title": {
            "userPreferred": "The Daichis: Earth Defence Family Special"
          },
          "coverImage": {
            "extraLarge": "https://s4.anilist.co/file/anilistcdn/media/anime/cover/medium/6579.jpg",
            "large": "https://s4.anilist.co/file/anilistcdn/media/anime/cover/medium/6579.jpg",
            "color": "#e4bb50"
          },
          "startDate": {
            "year": 2001,
            "month": null,
            "day": null
          },
          "endDate": {
            "year": 2001,
            "month": null,
            "day": null
          },
          "bannerImage": null,
          "season": null,
          "description": "The Daichis are a family in danger of tearing itself apart. Dissatisfied and money obsessed mom Seiko has served wimpy and otaku dad Mamoru with divorce papers. Daughter Nozomi who has always been saddled with all the housework, feels pained that everyone is using her. The youngest albeit most foul mouthed, Dai is forced to watch all this as everything is going to pieces. However when the Galaxy Federation recruits the Daichis to combat alien threats to the wellbeing of the Earth, it will be a chance for the family to save the world and maybe themselves.\n<br><br>\n(Source: Anime News Network)",
          "type": "ANIME",
          "format": "SPECIAL",
          "status": "FINISHED",
          "episodes": 1,
          "duration": 23,
          "chapters": null,
          "volumes": null,
          "genres": [
            "Adventure",
            "Comedy",
            "Mecha",
            "Romance"
          ],
          "isAdult": false,
          "averageScore": null,
          "popularity": 116,
          "nextAiringEpisode": null,
          "mediaListEntry": null,
          "studios": {
            "edges": []
          }
        },
        {
          "id": 5018,
          "title": {
            "userPreferred": "Piroppo"
          },
          "coverImage": {
            "extraLarge": "https://s4.anilist.co/file/anilistcdn/media/anime/cover/medium/5018.jpg",
            "large": "https://s4.anilist.co/file/anilistcdn/media/anime/cover/medium/5018.jpg",
            "color": "#e49350"
          },
          "startDate": {
            "year": 2001,
            "month": 10,
            "day": 11
          },
          "endDate": {
            "year": 2002,
            "month": 3,
            "day": 21
          },
          "bannerImage": null,
          "season": "FALL",
          "description": "Piroppo is a short series commisioned by Sony for the promotion of their robot dog Aibo. Apparently 54 slots of about 20 seconds each were made, but the dvd release totals 23 named episodes.<br><br>\nCreated by ISHII Katsuhito, director of Trava Fist Planet and several of the Grasshoppa live action projects, this is a highly original project despite the limited budget.<br><br>\n(Source: AniDB)",
          "type": "ANIME",
          "format": "TV_SHORT",
          "status": "FINISHED",
          "episodes": 23,
          "duration": 1,
          "chapters": null,
          "volumes": null,
          "genres": [
            "Comedy"
          ],
          "isAdult": false,
          "averageScore": null,
          "popularity": 177,
          "nextAiringEpisode": null,
          "mediaListEntry": null,
          "studios": {
            "edges": [
              {
                "isMain": true,
                "node": {
                  "id": 13,
                  "name": "Studio 4°C"
                }
              }
            ]
          }
        },
        {
          "id": 4940,
          "title": {
            "userPreferred": "Captain Kuppa"
          },
          "coverImage": {
            "extraLarge": "https://s4.anilist.co/file/anilistcdn/media/anime/cover/medium/4940.jpg",
            "large": "https://s4.anilist.co/file/anilistcdn/media/anime/cover/medium/4940.jpg",
            "color": "#e44378"
          },
          "startDate": {
            "year": 2001,
            "month": 8,
            "day": 13
          },
          "endDate": {
            "year": 2002,
            "month": 2,
            "day": 11
          },
          "bannerImage": null,
          "season": "SUMMER",
          "description": "Sometime in the future, the world was completely dried up and became all desert. They had little rivers and lakes left, which villians and dangerous animals lived. Water has become the most valueable thing on the world. Whoever can control water will rule over the world.\n<br><br>\n(Source: Anime News Network)",
          "type": "ANIME",
          "format": "TV",
          "status": "FINISHED",
          "episodes": 26,
          "duration": 25,
          "chapters": null,
          "volumes": null,
          "genres": [
            "Action",
            "Adventure"
          ],
          "isAdult": false,
          "averageScore": null,
          "popularity": 165,
          "nextAiringEpisode": null,
          "mediaListEntry": null,
          "studios": {
            "edges": []
          }
        },
        {
          "id": 4098,
          "title": {
            "userPreferred": "Urarochi Diamond"
          },
          "coverImage": {
            "extraLarge": "https://s4.anilist.co/file/anilistcdn/media/anime/cover/medium/4098.jpg",
            "large": "https://s4.anilist.co/file/anilistcdn/media/anime/cover/medium/4098.jpg",
            "color": "#f1bb1a"
          },
          "startDate": {
            "year": 2001,
            "month": 12,
            "day": 21
          },
          "endDate": {
            "year": 2001,
            "month": 12,
            "day": 21
          },
          "bannerImage": null,
          "season": "WINTER",
          "description": "Uraroji Diamond is a very interactive DVD which takes you inside a Studio-4C-style town with all the weirdness inside, while you scour for episodes (very short, black and white, weird episodes).<br><br>\n(Source: AnimeDB)",
          "type": "ANIME",
          "format": "OVA",
          "status": "FINISHED",
          "episodes": 1,
          "duration": 40,
          "chapters": null,
          "volumes": null,
          "genres": [
            "Adventure"
          ],
          "isAdult": false,
          "averageScore": null,
          "popularity": 194,
          "nextAiringEpisode": null,
          "mediaListEntry": null,
          "studios": {
            "edges": []
          }
        },
        {
          "id": 3290,
          "title": {
            "userPreferred": "Vampiyan Kids"
          },
          "coverImage": {
            "extraLarge": "https://s4.anilist.co/file/anilistcdn/media/anime/cover/medium/3290.jpg",
            "large": "https://s4.anilist.co/file/anilistcdn/media/anime/cover/medium/3290.jpg",
            "color": "#e49350"
          },
          "startDate": {
            "year": 2001,
            "month": 10,
            "day": 13
          },
          "endDate": {
            "year": 2002,
            "month": 3,
            "day": 30
          },
          "bannerImage": null,
          "season": "FALL",
          "description": "Have you ever heard of the Vampirians? One noble family of such vegetarian vampires have been banished from Monsterland for their inability to scare humans. To lift the exile set on the family, Papa, the head of the household, must scare 1000 humans. To this end, he attempts to use his magnificent skills in making new inventions, but always and inevitably fails. To complicate things further, Papa's daughter Sue falls in love with a young human boy and no longer wants to return to Monsterland. Will Papa ever get his family back home?<br><br>\n(Source: Production I.G.)",
          "type": "ANIME",
          "format": "TV",
          "status": "FINISHED",
          "episodes": 26,
          "duration": 23,
          "chapters": null,
          "volumes": null,
          "genres": [
            "Comedy",
            "Fantasy"
          ],
          "isAdult": false,
          "averageScore": null,
          "popularity": 229,
          "nextAiringEpisode": null,
          "mediaListEntry": null,
          "studios": {
            "edges": []
          }
        },
        {
          "id": 3151,
          "title": {
            "userPreferred": "Genei Toushi Bastof Lemon"
          },
          "coverImage": {
            "extraLarge": "https://s4.anilist.co/file/anilistcdn/media/anime/cover/medium/3151.jpg",
            "large": "https://s4.anilist.co/file/anilistcdn/media/anime/cover/medium/3151.jpg",
            "color": "#e4bb28"
          },
          "startDate": {
            "year": 2001,
            "month": 5,
            "day": 3
          },
          "endDate": {
            "year": 2001,
            "month": 11,
            "day": 15
          },
          "bannerImage": null,
          "season": "SPRING",
          "description": "The story takes place in the year 2097 and in the city of Xenon. An ultimate cyber game, where players fight as bio-mechanical cyber robots, has been developed. However, there's something wrong. The game's cyberspace and the real world are linked. The damage that occurs in the game's cyberspace creates destruction in the city of Xenon. This all started when players heard a painful scream, saw a ghostly face, and a powerful scent of lemon overcame them. To solve this mystery, the creator of the game assembles a \"Dream Team,\" which is the top three gamers in all of Xenon. The team is composed of rebellious and arrogant teens, who, have to overcome their attitudes and fears to find the answers, answers to the mystery that are much bigger than just the game.<br><br>\n(Source: Wikipedia)",
          "type": "ANIME",
          "format": "TV",
          "status": "FINISHED",
          "episodes": 26,
          "duration": 24,
          "chapters": null,
          "volumes": null,
          "genres": [
            "Adventure",
            "Mecha",
            "Sci-Fi"
          ],
          "isAdult": false,
          "averageScore": null,
          "popularity": 255,
          "nextAiringEpisode": null,
          "mediaListEntry": null,
          "studios": {
            "edges": []
          }
        },
        {
          "id": 3104,
          "title": {
            "userPreferred": "Geisters: Fractions of the Earth"
          },
          "coverImage": {
            "extraLarge": "https://s4.anilist.co/file/anilistcdn/media/anime/cover/medium/3104.jpg",
            "large": "https://s4.anilist.co/file/anilistcdn/media/anime/cover/medium/3104.jpg",
            "color": "#d6431a"
          },
          "startDate": {
            "year": 2001,
            "month": 10,
            "day": 6
          },
          "endDate": {
            "year": 2002,
            "month": 3,
            "day": 30
          },
          "bannerImage": null,
          "season": "FALL",
          "description": "A radio-active asteroid nearly destroys the Earth. Knowing it will be hard to survive the aftermath, many of the survivors leave Earth to live their lives in space colonies. <br><br>\n400 years later, the colonists return to Earth to reclaim their planet. Unfortunately, Earth isn't the same as when they left it. <br><br>\n(Source: AnimeNfo) ",
          "type": "ANIME",
          "format": "TV",
          "status": "FINISHED",
          "episodes": 26,
          "duration": 24,
          "chapters": null,
          "volumes": null,
          "genres": [
            "Action",
            "Sci-Fi"
          ],
          "isAdult": false,
          "averageScore": null,
          "popularity": 260,
          "nextAiringEpisode": null,
          "mediaListEntry": null,
          "studios": {
            "edges": []
          }
        }
      ]
    }
  }
}
